Introduction to R - Part 2 – Dr. Mark Dunning - Bioinformatician / Data Scientist
…
Before using any of these functions, we need to load the library:-

library(dplyr)

selecting columns

We can access the columns of a data frame using the select function.

by name

Firstly, we can select column by name, by adding bare column names (i.e. not requiring quote marks around the name) after the name of the data frame, separated by a , .

select(gapminder, country, continent)

# A tibble: 1,704 × 2
   country     continent
   <chr>       <chr>    
 1 Afghanistan Asia     
 2 Afghanistan Asia     
 3 Afghanistan Asia     
 4 Afghanistan Asia     
 5 Afghanistan Asia     
 6 Afghanistan Asia     
 7 Afghanistan Asia     
 8 Afghanistan Asia     
 9 Afghanistan Asia     
10 Afghanistan Asia     
# ℹ 1,694 more rows

We can also omit columns from the ouput by putting a minus (-) in front of the column name. Note that this is not the same as removing the column from the data permanently.

select(gapminder, -country)

# A tibble: 1,704 × 5
   continent  year lifeExp      pop gdpPercap
   <chr>     <dbl>   <dbl>    <dbl>     <dbl>
 1 Asia       1952    28.8  8425333      779.
 2 Asia       1957    30.3  9240934      821.
 3 Asia       1962    32.0 10267083      853.
 4 Asia       1967    34.0 11537966      836.
 5 Asia       1972    36.1 13079460      740.
 6 Asia       1977    38.4 14880372      786.
 7 Asia       1982    39.9 12881816      978.
 8 Asia       1987    40.8 13867957      852.
 9 Asia       1992    41.7 16317921      649.
10 Asia       1997    41.8 22227415      635.
# ℹ 1,694 more rows

range of columns

A range of columns can be selected by the : operator.

select(gapminder, lifeExp:gdpPercap)

# A tibble: 1,704 × 3
   lifeExp      pop gdpPercap
     <dbl>    <dbl>     <dbl>
 1    28.8  8425333      779.
 2    30.3  9240934      821.
 3    32.0 10267083      853.
 4    34.0 11537966      836.
 5    36.1 13079460      740.
 6    38.4 14880372      786.
 7    39.9 12881816      978.
 8    40.8 13867957      852.
 9    41.7 16317921      649.
10    41.8 22227415      635.
# ℹ 1,694 more rows

helper functions

There are a number of helper functions can be employed if we are unsure about the exact name of the column.

select(gapminder, starts_with("co"))

# A tibble: 1,704 × 2
   country     continent
   <chr>       <chr>    
 1 Afghanistan Asia     
 2 Afghanistan Asia     
 3 Afghanistan Asia     
 4 Afghanistan Asia     
 5 Afghanistan Asia     
 6 Afghanistan Asia     
 7 Afghanistan Asia     
 8 Afghanistan Asia     
 9 Afghanistan Asia     
10 Afghanistan Asia     
# ℹ 1,694 more rows

select(gapminder, contains("life"))

# A tibble: 1,704 × 1
   lifeExp
     <dbl>
 1    28.8
 2    30.3
 3    32.0
 4    34.0
 5    36.1
 6    38.4
 7    39.9
 8    40.8
 9    41.7
10    41.8
# ℹ 1,694 more rows

# selecting the last and penultimate columns
select(gapminder, last_col(1),last_col())

# A tibble: 1,704 × 2
        pop gdpPercap
      <dbl>     <dbl>
 1  8425333      779.
 2  9240934      821.
 3 10267083      853.
 4 11537966      836.
 5 13079460      740.
 6 14880372      786.
 7 12881816      978.
 8 13867957      852.
 9 16317921      649.
10 22227415      635.
# ℹ 1,694 more rows

It is also possible to use the column number in the selection.

select(gapminder, 4:6)

# A tibble: 1,704 × 3
   lifeExp      pop gdpPercap
     <dbl>    <dbl>     <dbl>
 1    28.8  8425333      779.
 2    30.3  9240934      821.
 3    32.0 10267083      853.
 4    34.0 11537966      836.
 5    36.1 13079460      740.
 6    38.4 14880372      786.
 7    39.9 12881816      978.
 8    40.8 13867957      852.
 9    41.7 16317921      649.
10    41.8 22227415      635.
# ℹ 1,694 more rows

Question: Why might using the number of the column sometimes be problematic? Consider what might happen if you wrote code to select the last column of data from a file using the column number. What would happen if the number of columns in the file was not constant?

The select function can be used with just a single column name - in a similar manner to the $ operation we saw last time. However, select always returns a data frame whereas $ gives a vector. Compare the output of the following code chunks

select(gapminder, pop)

# A tibble: 1,704 × 1
        pop
      <dbl>
 1  8425333
 2  9240934
 3 10267083
 4 11537966
 5 13079460
 6 14880372
 7 12881816
 8 13867957
 9 16317921
10 22227415
# ℹ 1,694 more rows
…
pops <- pull(gapminder,pop)
mean(pops)

[1] 29601212

Restricting rows with filter

So far we have been returning all the rows in the output. We can use what we call a logical test to filter the rows in a data frame. This logical test will be applied to each row and give either a TRUE or FALSE result. When filtering, only rows with a TRUE result get returned.

For example we filter for rows where the lifeExp variable is less than 40.

filter(gapminder, lifeExp < 40)

# A tibble: 124 × 6
   country     continent  year lifeExp      pop gdpPercap
   <chr>       <chr>     <dbl>   <dbl>    <dbl>     <dbl>
 1 Afghanistan Asia       1952    28.8  8425333      779.
 2 Afghanistan Asia       1957    30.3  9240934      821.
 3 Afghanistan Asia       1962    32.0 10267083      853.
 4 Afghanistan Asia       1967    34.0 11537966      836.
 5 Afghanistan Asia       1972    36.1 13079460      740.
 6 Afghanistan Asia       1977    38.4 14880372      786.
 7 Afghanistan Asia       1982    39.9 12881816      978.
 8 Angola      Africa     1952    30.0  4232095     3521.
 9 Angola      Africa     1957    32.0  4561361     3828.
10 Angola      Africa     1962    34    4826015     4269.
# ℹ 114 more rows
…
N.B. For partial matches, the grepl function and / or regular expressions (if you know them) can be used.

filter(gapminder, grepl("land", country))

# A tibble: 108 × 6
   country continent  year lifeExp     pop gdpPercap
   <chr>   <chr>     <dbl>   <dbl>   <dbl>     <dbl>
 1 Finland Europe     1952    66.6 4090500     6425.
 2 Finland Europe     1957    67.5 4324000     7545.
 3 Finland Europe     1962    68.8 4491443     9372.
 4 Finland Europe     1967    69.8 4605744    10922.
 5 Finland Europe     1972    70.9 4639657    14359.
 6 Finland Europe     1977    72.5 4738902    15605.
 7 Finland Europe     1982    74.6 4826933    18533.
 8 Finland Europe     1987    74.8 4931729    21141.
 9 Finland Europe     1992    75.7 5041039    20647.
10 Finland Europe     1997    77.1 5134406    23724.
# ℹ 98 more rows

We can also test if rows are not equal to a value using !=

filter(gapminder, continent != "Europe")

# A tibble: 1,344 × 6
   country     continent  year lifeExp      pop gdpPercap
   <chr>       <chr>     <dbl>   <dbl>    <dbl>     <dbl>
 1 Afghanistan Asia       1952    28.8  8425333      779.
 2 Afghanistan Asia       1957    30.3  9240934      821.
 3 Afghanistan Asia       1962    32.0 10267083      853.
 4 Afghanistan Asia       1967    34.0 11537966      836.
 5 Afghanistan Asia       1972    36.1 13079460      740.
 6 Afghanistan Asia       1977    38.4 14880372      786.
 7 Afghanistan Asia       1982    39.9 12881816      978.
 8 Afghanistan Asia       1987    40.8 13867957      852.
 9 Afghanistan Asia       1992    41.7 16317921      649.
10 Afghanistan Asia       1997    41.8 22227415      635.
# ℹ 1,334 more rows

testing more than one condition

There are a couple of ways of testing for more than one pattern. The first uses an or | statement. i.e. testing if the value of country is Zambia or the value is Zimbabwe. Remember to use double = sign to test for string equality; ==.

filter(gapminder, country == "Zambia" | country == "Zimbabwe")

# A tibble: 24 × 6
   country continent  year lifeExp     pop gdpPercap
   <chr>   <chr>     <dbl>   <dbl>   <dbl>     <dbl>
 1 Zambia  Africa     1952    42.0 2672000     1147.
 2 Zambia  Africa     1957    44.1 3016000     1312.
 3 Zambia  Africa     1962    46.0 3421000     1453.
 4 Zambia  Africa     1967    47.8 3900000     1777.
 5 Zambia  Africa     1972    50.1 4506497     1773.
 6 Zambia  Africa     1977    51.4 5216550     1589.
 7 Zambia  Africa     1982    51.8 6100407     1409.
 8 Zambia  Africa     1987    50.8 7272406     1213.
 9 Zambia  Africa     1992    46.1 8381163     1211.
10 Zambia  Africa     1997    40.2 9417789     1071.
# ℹ 14 more rows

The %in% function is a convenient function for testing which items in a vector correspond to a defined set of values.

filter(gapminder, country %in% c("Zambia", "Zimbabwe"))

# A tibble: 24 × 6
   country continent  year lifeExp     pop gdpPercap
   <chr>   <chr>     <dbl>   <dbl>   <dbl>     <dbl>
 1 Zambia  Africa     1952    42.0 2672000     1147.
 2 Zambia  Africa     1957    44.1 3016000     1312.
 3 Zambia  Africa     1962    46.0 3421000     1453.
 4 Zambia  Africa     1967    47.8 3900000     1777.
 5 Zambia  Africa     1972    50.1 4506497     1773.
 6 Zambia  Africa     1977    51.4 5216550     1589.
 7 Zambia  Africa     1982    51.8 6100407     1409.
 8 Zambia  Africa     1987    50.8 7272406     1213.
 9 Zambia  Africa     1992    46.1 8381163     1211.
10 Zambia  Africa     1997    40.2 9417789     1071.
# ℹ 14 more rows
…
Create a subset of the European data where the life expectancy is between 75 and 80 in the years 2002 or 2007.

If you are finished with these, try to explore alternative ways of performing the same filtering

Manipulating the values in a column / creating new columns

As well as selecting existing columns in the data frame, new columns can be created and existing ones manipulated using the mutate function. Typically a function or mathematical expression is applied to data in existing columns by row, and the result either stored in a new column or reassigned to an existing one. In other words, the number of values returned by the function must be the same as the number of input values. Multiple mutations can be performed in one line of code.

Here, we create a new column of population in millions (PopInMillions) and round lifeExp to the nearest integer.

mutate(gapminder, PopInMillions = pop / 1e6,
       lifeExp = round(lifeExp))

# A tibble: 1,704 × 7
   country     continent  year lifeExp      pop gdpPercap PopInMillions
   <chr>       <chr>     <dbl>   <dbl>    <dbl>     <dbl>         <dbl>
 1 Afghanistan Asia       1952      29  8425333      779.          8.43
 2 Afghanistan Asia       1957      30  9240934      821.          9.24
 3 Afghanistan Asia       1962      32 10267083      853.         10.3 
 4 Afghanistan Asia       1967      34 11537966      836.         11.5 
 5 Afghanistan Asia       1972      36 13079460      740.         13.1 
 6 Afghanistan Asia       1977      38 14880372      786.         14.9 
 7 Afghanistan Asia       1982      40 12881816      978.         12.9 
 8 Afghanistan Asia       1987      41 13867957      852.         13.9 
 9 Afghanistan Asia       1992      42 16317921      649.         16.3 
10 Afghanistan Asia       1997      42 22227415      635.         22.2 
# ℹ 1,694 more rows

Note that we haven’t actually changed our gapminder data frame. If we wanted to make the new columns permanent, we would have to create a new variable.

If we want to rename existing columns, and not create any extra columns, we can use the rename function.

rename(gapminder, GDP=gdpPercap)

# A tibble: 1,704 × 6
   country     continent  year lifeExp      pop   GDP
   <chr>       <chr>     <dbl>   <dbl>    <dbl> <dbl>
 1 Afghanistan Asia       1952    28.8  8425333  779.
 2 Afghanistan Asia       1957    30.3  9240934  821.
 3 Afghanistan Asia       1962    32.0 10267083  853.
 4 Afghanistan Asia       1967    34.0 11537966  836.
 5 Afghanistan Asia       1972    36.1 13079460  740.
 6 Afghanistan Asia       1977    38.4 14880372  786.
 7 Afghanistan Asia       1982    39.9 12881816  978.
 8 Afghanistan Asia       1987    40.8 13867957  852.
 9 Afghanistan Asia       1992    41.7 16317921  649.
10 Afghanistan Asia       1997    41.8 22227415  635.
# ℹ 1,694 more rows

Ordering / sorting

The whole data frame can be re-ordered according to the values in one column using the arrange function. So to order the table according to population size:-

arrange(gapminder, pop)

# A tibble: 1,704 × 6
   country               continent  year lifeExp   pop gdpPercap
   <chr>                 <chr>     <dbl>   <dbl> <dbl>     <dbl>
 1 Sao Tome and Principe Africa     1952    46.5 60011      880.
 2 Sao Tome and Principe Africa     1957    48.9 61325      861.
 3 Djibouti              Africa     1952    34.8 63149     2670.
 4 Sao Tome and Principe Africa     1962    51.9 65345     1072.
 5 Sao Tome and Principe Africa     1967    54.4 70787     1385.
 6 Djibouti              Africa     1957    37.3 71851     2865.
 7 Sao Tome and Principe Africa     1972    56.5 76595     1533.
 8 Sao Tome and Principe Africa     1977    58.6 86796     1738.
 9 Djibouti              Africa     1962    39.7 89898     3021.
10 Sao Tome and Principe Africa     1982    60.4 98593     1890.
# ℹ 1,694 more rows

The default is smallest --> largest but we can change this using the desc function

arrange(gapminder, desc(pop))

# A tibble: 1,704 × 6
   country continent  year lifeExp        pop gdpPercap
   <chr>   <chr>     <dbl>   <dbl>      <dbl>     <dbl>
 1 China   Asia       2007    73.0 1318683096     4959.
 2 China   Asia       2002    72.0 1280400000     3119.
 3 China   Asia       1997    70.4 1230075000     2289.
 4 China   Asia       1992    68.7 1164970000     1656.
 5 India   Asia       2007    64.7 1110396331     2452.
 6 China   Asia       1987    67.3 1084035000     1379.
 7 India   Asia       2002    62.9 1034172547     1747.
 8 China   Asia       1982    65.5 1000281000      962.
 9 India   Asia       1997    61.8  959000000     1459.
10 China   Asia       1977    64.0  943455000      741.
# ℹ 1,694 more rows

arrange also works on character vectors, arrange them alpha-numerically.

arrange(gapminder, desc(country))

# A tibble: 1,704 × 6
   country  continent  year lifeExp      pop gdpPercap
   <chr>    <chr>     <dbl>   <dbl>    <dbl>     <dbl>
 1 Zimbabwe Africa     1952    48.5  3080907      407.
 2 Zimbabwe Africa     1957    50.5  3646340      519.
 3 Zimbabwe Africa     1962    52.4  4277736      527.
 4 Zimbabwe Africa     1967    54.0  4995432      570.
 5 Zimbabwe Africa     1972    55.6  5861135      799.
 6 Zimbabwe Africa     1977    57.7  6642107      686.
 7 Zimbabwe Africa     1982    60.4  7636524      789.
 8 Zimbabwe Africa     1987    62.4  9216418      706.
 9 Zimbabwe Africa     1992    60.4 10704340      693.
10 Zimbabwe Africa     1997    46.8 11404948      792.
# ℹ 1,694 more rows

We can even order by more than one condition

arrange(gapminder, year, pop)

# A tibble: 1,704 × 6
   country               continent  year lifeExp    pop gdpPercap
   <chr>                 <chr>     <dbl>   <dbl>  <dbl>     <dbl>
 1 Sao Tome and Principe Africa     1952    46.5  60011      880.
 2 Djibouti              Africa     1952    34.8  63149     2670.
 3 Bahrain               Asia       1952    50.9 120447     9867.
 4 Iceland               Europe     1952    72.5 147962     7268.
 5 Comoros               Africa     1952    40.7 153936     1103.
 6 Kuwait                Asia       1952    55.6 160000   108382.
 7 Equatorial Guinea     Africa     1952    34.5 216964      376.
 8 Reunion               Africa     1952    52.7 257700     2719.
 9 Gambia                Africa     1952    30   284320      485.
10 Swaziland             Africa     1952    41.4 290243     1148.
# ℹ 1,694 more rows

arrange(gapminder, year, continent, pop)

# A tibble: 1,704 × 6
   country               continent  year lifeExp    pop gdpPercap
   <chr>                 <chr>     <dbl>   <dbl>  <dbl>     <dbl>
 1 Sao Tome and Principe Africa     1952    46.5  60011      880.
 2 Djibouti              Africa     1952    34.8  63149     2670.
 3 Comoros               Africa     1952    40.7 153936     1103.
 4 Equatorial Guinea     Africa     1952    34.5 216964      376.
 5 Reunion               Africa     1952    52.7 257700     2719.
 6 Gambia                Africa     1952    30   284320      485.
 7 Swaziland             Africa     1952    41.4 290243     1148.
 8 Gabon                 Africa     1952    37.0 420702     4293.
 9 Botswana              Africa     1952    47.6 442308      851.
10 Namibia               Africa     1952    41.7 485831     2424.
# ℹ 1,694 more rows
…
Write the data frame out to a file in out_data/ folder

“Piping”

As have have just seen, we will often need to perform an analysis, or clean a dataset, using several dplyr functions in sequence. e.g. filtering, mutating, then selecting columns of interest (possibly followed by plotting - see shortly).

As a small example; if we wanted to filter our results to just Europe the continent column becomes redundant so we might as well remove it.

The following is perfectly valid R code, but invites the user to make mistakes and copy-and-paste erros when writing it. We also have to create multiple copies of the same data frame.

tmp <- filter(gapminder, continent == "Europe")
tmp2 <- select(tmp, -continent)
tmp2

# A tibble: 360 × 5
   country  year lifeExp     pop gdpPercap
   <chr>   <dbl>   <dbl>   <dbl>     <dbl>
 1 Albania  1952    55.2 1282697     1601.
 2 Albania  1957    59.3 1476505     1942.
 3 Albania  1962    64.8 1728137     2313.
 4 Albania  1967    66.2 1984060     2760.
 5 Albania  1972    67.7 2263554     3313.
 6 Albania  1977    68.9 2509048     3533.
 7 Albania  1982    70.4 2780097     3631.
 8 Albania  1987    72   3075321     3739.
 9 Albania  1992    71.6 3326498     2497.
10 Albania  1997    73.0 3428038     3193.
# ℹ 350 more rows

(Those familiar with Unix may recall that commands can be joined with a pipe; |)

In R, dplyr commands to be linked together and form a workflow. The symbol %>% is pronounced then. With a %>% the input to a function is assumed to be the output of the previous line. All the dplyr functions that we have seen so far take a data frame as an input and return an altered data frame as an output, so are amenable to this type of programming.

The example we gave of filtering just the European countries and removing the continent column becomes:-

filter(gapminder, continent=="Europe") %>% 
  select(-continent)

# A tibble: 360 × 5
   country  year lifeExp     pop gdpPercap
   <chr>   <dbl>   <dbl>   <dbl>     <dbl>
 1 Albania  1952    55.2 1282697     1601.
 2 Albania  1957    59.3 1476505     1942.
 3 Albania  1962    64.8 1728137     2313.
 4 Albania  1967    66.2 1984060     2760.
 5 Albania  1972    67.7 2263554     3313.
 6 Albania  1977    68.9 2509048     3533.
 7 Albania  1982    70.4 2780097     3631.
 8 Albania  1987    72   3075321     3739.
 9 Albania  1992    71.6 3326498     2497.
10 Albania  1997    73.0 3428038     3193.
# ℹ 350 more rows
…
