Tidymodels for omics data: Part 1 – Dr. Mark Dunning - Bioinformatician / Data Scientist
…
Again, this all makes perfect sense as Luminal A and Luminal B are ER-positive groups, Basal and Her2 are ER-negative and ERBB2 should be highly expressed in the Her2 subtype.

So, are the Pam50 subtypes are major source of variation in our data? The tidybulk package allows us to run dimensionality reduction techniques such as PCA to look at this issue. The reduce_dimensions function computes the Principal Components and these can be added to our data ready for visualisation. Normally tidybulk would require a scale_abundance step here to correct for differences in sequencing depth between samples, but since we are using values that are already normalised to some extent this is not needed on this ocassion.

brca_gene_filtered |>
  reduce_dimensions(method = "PCA") |>
  ## not needed here: scale_abundance() |>
  pivot_sample() %>% 
  select(.sample, PC1, PC2)

# A tibble: 1,111 × 3
   .sample                         PC1    PC2
   <chr>                         <dbl>  <dbl>
 1 TCGA-EW-A2FS-01A-11R-A17B-07  9.35  -8.84 
 2 TCGA-OL-A6VR-01A-32R-A33J-07 -6.26  -4.46 
 3 TCGA-E9-A226-01A-21R-A157-07 -8.62   4.47 
 4 TCGA-A8-A08H-01A-21R-A00Z-07  0.362  5.87 
 5 TCGA-D8-A27H-01A-11R-A16F-07  7.76  16.8  
 6 TCGA-D8-A3Z6-01A-11R-A239-07 -5.76  -5.94 
 7 TCGA-B6-A1KN-01A-11R-A13Q-07  0.728  0.144
 8 TCGA-BH-A0DL-01A-11R-A115-07 20.8    6.48 
 9 TCGA-A8-A09X-01A-11R-A00Z-07 13.6   -4.60 
10 TCGA-BH-A2L8-01A-11R-A18M-07  5.41  -7.91 
# ℹ 1,101 more rows
…
