Tidymodels for omics data: Part 4 – Dr. Mark Dunning - Bioinformatician / Data Scientist
…
── Model ───────────────────────────────────────────────────────────────────────
Logistic Regression Model Specification (classification)

Main Arguments:
  penalty = 0.0562341325190349
  mixture = 0

Computational engine: glmnet 

Remember that the purpose of tuning was to find an optimal set of hyperparameters, and we did that using a newly-created set of cross-validation subsets. We still need to fit, and create, the final model using those paramaters that we chose. This still needs to be performed on our entire training dataset.

final_model_fit <- fit(final_wflow, data = er_train)
final_model_fit %>% tidy

# A tibble: 246 × 3
   term        estimate penalty
   <chr>          <dbl>   <dbl>
 1 (Intercept)  2.71     0.0562
 2 CLEC3A       0.0756   0.0562
 3 SCGB2A2     -0.0580   0.0562
 4 CPB1         0.0248   0.0562
 5 GSTM1       -0.204    0.0562
 6 TFF1         0.116    0.0562
 7 S100A7      -0.0151   0.0562
 8 SCGB1D2      0.00630  0.0562
 9 KCNJ3        0.0352   0.0562
10 LINC00993   -0.0425   0.0562
# ℹ 236 more rows
…
tree_range <- trees(range = c(500,2000))

minn_range <- min_n(range = c(5,50)) 

rf_grid <- grid_regular(
  mtry_range,
  tree_range,
  minn_range,
  levels = c(mtry = 5, trees = 3, min_n = 3)
)

rf_grid

# A tibble: 45 × 3
    mtry trees min_n
   <int> <int> <int>
 1     5   500     5
 2    16   500     5
 3    27   500     5
 4    38   500     5
 5    50   500     5
 6     5  1250     5
 7    16  1250     5
 8    27  1250     5
 9    38  1250     5
10    50  1250     5
# ℹ 35 more rows
…
