Introduction to RNA-Seq - Part 2 – Dr. Mark Dunning - Bioinformatician / Data Scientist
…
However, these are not in the tidy form that ggplot2 requires so we have to reshape the data using tidyr’s pivot_longer function. Turning the counts into a data frame introduced an “X” at the start of the column names, so we better remove that.

norm_counts %>% 
  data.frame() %>% 
  tibble:::rownames_to_column("row") %>% 
  filter(row %in% ens_ids) %>% 
  tidyr::pivot_longer(-row, names_to = "Run", values_to = "count") %>% 
  mutate(Run = stringr::str_remove_all(Run, "X"))

# A tibble: 27 × 3
   row             Run           count
   <chr>           <chr>         <dbl>
 1 ENSG00000108821 1_CTR_BC_2  250217.
 2 ENSG00000108821 2_TGF_BC_4  646241.
 3 ENSG00000108821 3_IR_BC_5   158907.
 4 ENSG00000108821 4_CTR_BC_6  241051.
 5 ENSG00000108821 5_TGF_BC_7  530262.
 6 ENSG00000108821 6_IR_BC_12  159665.
 7 ENSG00000108821 7_CTR_BC_13 193788.
 8 ENSG00000108821 8_TGF_BC_14 641087.
 9 ENSG00000108821 9_IR_BC_15  177323.
10 ENSG00000164692 1_CTR_BC_2  431599.
# ℹ 17 more rows

Now we have the counts in a tidy form, but we don’t know the sample groupings. The groupings can be obtained from the colData

sampleInfo <- colData(dds) %>% data.frame

norm_counts %>% 
  data.frame() %>% 
  tibble:::rownames_to_column("row") %>% 
  filter(row %in% ens_ids) %>% 
  tidyr::pivot_longer(-row, names_to = "Run", values_to = "count") %>% 
  mutate(Run = stringr::str_remove_all(Run, "X")) %>% 
  left_join(sampleInfo, by = "Run")

# A tibble: 27 × 8
   row             Run        count condition Name  Replicate Treated sizeFactor
   <chr>           <chr>      <dbl> <fct>     <chr>     <int> <chr>        <dbl>
 1 ENSG00000108821 1_CTR_BC… 2.50e5 CTR       CTR_1         1 N            1.05 
 2 ENSG00000108821 2_TGF_BC… 6.46e5 TGF       TGF_1         1 Y            1.18 
 3 ENSG00000108821 3_IR_BC_5 1.59e5 IR        IR_1          1 Y            0.893
 4 ENSG00000108821 4_CTR_BC… 2.41e5 CTR       CTR_2         2 N            1.10 
 5 ENSG00000108821 5_TGF_BC… 5.30e5 TGF       TGF_2         2 Y            1.05 
 6 ENSG00000108821 6_IR_BC_… 1.60e5 IR        IR_2          2 Y            0.863
 7 ENSG00000108821 7_CTR_BC… 1.94e5 CTR       CTR_3         3 N            0.949
 8 ENSG00000108821 8_TGF_BC… 6.41e5 TGF       TGF_3         3 Y            1.06 
 9 ENSG00000108821 9_IR_BC_… 1.77e5 IR        IR_3          3 Y            0.978
10 ENSG00000164692 1_CTR_BC… 4.32e5 CTR       CTR_1         1 N            1.05 
# ℹ 17 more rows
…
