Tidymodels for omics data: Part 2 – Dr. Mark Dunning - Bioinformatician / Data Scientist
…
node), split, n, loss, yval, (yprob)
      * denotes terminal node

1) root 847 193 Positive (0.77213695 0.22786305)  
  2) ESR1>=2.365644 646  19 Positive (0.97058824 0.02941176) *
  3) ESR1< 2.365644 201  27 Negative (0.13432836 0.86567164) *

And the prediction code is the same, but using the model we have just created.

tidymodels_tree_fit %>% 
  predict(new_data = er_test, type = "class") %>% ## make predictions from the test data
  bind_cols(er_test) # Add the predicted class

# A tibble: 213 × 4
   .pred_class ER        ESR1 ER_Numeric
   <fct>       <fct>    <dbl>      <dbl>
 1 Positive    Positive 3.21           1
 2 Positive    Positive 3.82           1
 3 Negative    Negative 0.831          0
 4 Negative    Negative 1.14           0
 5 Positive    Positive 4.84           1
 6 Positive    Positive 4.31           1
 7 Positive    Positive 3.28           1
 8 Positive    Positive 5.80           1
 9 Positive    Positive 5.26           1
10 Positive    Positive 5.54           1
# ℹ 203 more rows
…
