Tidymodels for omics data: Part 3a – Dr. Mark Dunning - Bioinformatician / Data Scientist
…
...
and 54 more lines.

Even though we have told the model what value of \(\lambda\) we want to use it is trying out different values of \(\lambda\) and assessing the model fit at each point. In practical terms, this would allow us to tune the behaviour of the model but that is beyond the scope of this particular section. By printing the coefficients of the model we can see what genes it has shruken to zero and effectively discarded from the model

# View the coefficients to see the shrinkage/zeroing effect
tidy(fixed_lasso_fit) %>% arrange(estimate)

# A tibble: 246 × 3
   term     estimate penalty
   <chr>       <dbl>   <dbl>
 1 IGLV6.57  -0.295     0.01
 2 KLK5      -0.272     0.01
 3 KIF1A     -0.215     0.01
 4 KRT4      -0.206     0.01
 5 GSTM1     -0.199     0.01
 6 ZIC1      -0.146     0.01
 7 ACTL8     -0.136     0.01
 8 FABP7     -0.130     0.01
 9 DLK1      -0.0998    0.01
10 KRT81     -0.0949    0.01
# ℹ 236 more rows
…
So the sensitivity has improved from the decision tree, and also beats the glmnet model, with no difference in specificity. As with the Lasso output, we can get a sense of what features are most powerful using an “importance” score that is calculated (setting importance = "permutation" in the specification allows us to do this). The ranking of these scores is important, and reflects how much more or how much less this gene contributes compared to all others in your model. A positive score means a model benefits from having that gene includes, whereas a negative score means the gene actually makes a model perform worse.

Extracting this information can be done as follows

importance_df <- pull_workflow_fit(random_forest_fit)$fit$variable.importance %>%
  enframe(name = "term", value = "Importance") %>%
  arrange(desc(Importance))
importance_df

# A tibble: 245 × 2
   term       Importance
   <chr>           <dbl>
 1 TFF1          0.00825
 2 SERPINA11     0.00821
 3 POTEKP        0.00801
 4 CYP2B7P       0.00683
 5 LINC01087     0.00666
 6 AC044784.1    0.00600
 7 HORMAD1       0.00521
 8 GP2           0.00518
 9 SRARP         0.00508
10 LINC01016     0.00505
# ℹ 235 more rows
…
