Introduction to R - Part 3 – Dr. Mark Dunning - Bioinformatician / Data Scientist
…
More than one categorical variable can be used for finer-grain summaries. Here the summaries are for each year and continent combination

gapminder %>% 
    group_by(year,continent) %>% 
    summarise(MinLifeExpectancy = min(lifeExp), 
              MaximumGDP = max(gdpPercap), 
              AveragePop = mean(pop))

`summarise()` has grouped output by 'year'. You can override using the
`.groups` argument.

# A tibble: 60 × 5
# Groups:   year [12]
    year continent MinLifeExpectancy MaximumGDP AveragePop
   <dbl> <chr>                 <dbl>      <dbl>      <dbl>
 1  1952 Africa                 30        4725.   4570010.
 2  1952 Americas               37.6     13990.  13806098.
 3  1952 Asia                   28.8    108382.  42283556.
 4  1952 Europe                 43.6     14734.  13937362.
 5  1952 Oceania                69.1     10557.   5343003 
 6  1957 Africa                 31.6      5487.   5093033.
 7  1957 Americas               40.7     14847.  15478157.
 8  1957 Asia                   30.3    113523.  47356988.
 9  1957 Europe                 48.1     17909.  14596345.
10  1957 Oceania                70.3     12247.   5970988 
# ℹ 50 more rows
…
Returning to the correlation between life expectancy and year, we use the group_by technique as follows:-

gapminder %>%     
    group_by(country) %>% 
    summarise(Correlation = cor(year , lifeExp))

# A tibble: 142 × 2
   country     Correlation
   <chr>             <dbl>
 1 Afghanistan       0.974
 2 Albania           0.954
 3 Algeria           0.993
 4 Angola            0.942
 5 Argentina         0.998
 6 Australia         0.990
 7 Austria           0.996
 8 Bahrain           0.983
 9 Bangladesh        0.995
10 Belgium           0.997
# ℹ 132 more rows

We can then arrange the table by the correlation to see which countries have the lowest correlation

gapminder %>%      
    group_by(country) %>% 
    summarise(Correlation = cor(year , lifeExp)) %>% 
    arrange(Correlation)

# A tibble: 142 × 2
   country          Correlation
   <chr>                  <dbl>
 1 Zambia                -0.245
 2 Zimbabwe              -0.237
 3 Rwanda                -0.131
 4 Botswana               0.184
 5 Swaziland              0.261
 6 Lesotho                0.291
 7 Cote d'Ivoire          0.532
 8 South Africa           0.559
 9 Uganda                 0.585
10 Congo, Dem. Rep.       0.590
# ℹ 132 more rows
…
covid <- read_csv("raw_data/time_series_covid19_confirmed_global.csv")

Rows: 289 Columns: 1147
── Column specification ────────────────────────────────────────────────────────
Delimiter: ","
chr    (2): Province/State, Country/Region
dbl (1145): Lat, Long, 1/22/20, 1/23/20, 1/24/20, 1/25/20, 1/26/20, 1/27/20,...

ℹ Use `spec()` to retrieve the full column specification for this data.
ℹ Specify the column types or set `show_col_types = FALSE` to quiet this message.

covid

# A tibble: 289 × 1,147
   `Province/State`  `Country/Region`   Lat   Long `1/22/20` `1/23/20` `1/24/20`
   <chr>             <chr>            <dbl>  <dbl>     <dbl>     <dbl>     <dbl>
 1 <NA>              Afghanistan       33.9  67.7          0         0         0
 2 <NA>              Albania           41.2  20.2          0         0         0
 3 <NA>              Algeria           28.0   1.66         0         0         0
 4 <NA>              Andorra           42.5   1.52         0         0         0
 5 <NA>              Angola           -11.2  17.9          0         0         0
 6 <NA>              Antarctica       -71.9  23.3          0         0         0
 7 <NA>              Antigua and Bar…  17.1 -61.8          0         0         0
 8 <NA>              Argentina        -38.4 -63.6          0         0         0
 9 <NA>              Armenia           40.1  45.0          0         0         0
10 Australian Capit… Australia        -35.5 149.           0         0         0
# ℹ 279 more rows
# ℹ 1,140 more variables: `1/25/20` <dbl>, `1/26/20` <dbl>, `1/27/20` <dbl>,
#   `1/28/20` <dbl>, `1/29/20` <dbl>, `1/30/20` <dbl>, `1/31/20` <dbl>,
#   `2/1/20` <dbl>, `2/2/20` <dbl>, `2/3/20` <dbl>, `2/4/20` <dbl>,
#   `2/5/20` <dbl>, `2/6/20` <dbl>, `2/7/20` <dbl>, `2/8/20` <dbl>,
#   `2/9/20` <dbl>, `2/10/20` <dbl>, `2/11/20` <dbl>, `2/12/20` <dbl>,
#   `2/13/20` <dbl>, `2/14/20` <dbl>, `2/15/20` <dbl>, `2/16/20` <dbl>, …
…
For more information on tidy data, and how to convert between long and wide data, see

https://r4ds.had.co.nz/tidy-data.html

For convenience we will also rename the column containing country names

## set the show_col_types argument to FALSE to suppress message about column types

library(tidyr)
covid <- read_csv("raw_data/time_series_covid19_confirmed_global.csv",show_col_types = FALSE) %>% 
    rename(country = `Country/Region`) %>% 
  pivot_longer(5:last_col(),names_to="Date", values_to="Cases")
covid

# A tibble: 330,327 × 6
   `Province/State` country       Lat  Long Date    Cases
   <chr>            <chr>       <dbl> <dbl> <chr>   <dbl>
 1 <NA>             Afghanistan  33.9  67.7 1/22/20     0
 2 <NA>             Afghanistan  33.9  67.7 1/23/20     0
 3 <NA>             Afghanistan  33.9  67.7 1/24/20     0
 4 <NA>             Afghanistan  33.9  67.7 1/25/20     0
 5 <NA>             Afghanistan  33.9  67.7 1/26/20     0
 6 <NA>             Afghanistan  33.9  67.7 1/27/20     0
 7 <NA>             Afghanistan  33.9  67.7 1/28/20     0
 8 <NA>             Afghanistan  33.9  67.7 1/29/20     0
 9 <NA>             Afghanistan  33.9  67.7 1/30/20     0
10 <NA>             Afghanistan  33.9  67.7 1/31/20     0
# ℹ 330,317 more rows
…
Dealing with dates

See this website for more about representing and converting dates in R.

https://www.statology.org/r-date-format/

For more ways of dealing with dates in R see the lubridate package which can handle tasks such as calculating intervals between dates and much more

covid <- read_csv("raw_data/time_series_covid19_confirmed_global.csv",show_col_types = FALSE) %>% 
    rename(country = `Country/Region`) %>% 
  pivot_longer(5:last_col(),names_to="Date", values_to="Cases") %>% 
  mutate(Date=as.Date(Date,"%m/%d/%y"))
covid

# A tibble: 330,327 × 6
   `Province/State` country       Lat  Long Date       Cases
   <chr>            <chr>       <dbl> <dbl> <date>     <dbl>
 1 <NA>             Afghanistan  33.9  67.7 2020-01-22     0
 2 <NA>             Afghanistan  33.9  67.7 2020-01-23     0
 3 <NA>             Afghanistan  33.9  67.7 2020-01-24     0
 4 <NA>             Afghanistan  33.9  67.7 2020-01-25     0
 5 <NA>             Afghanistan  33.9  67.7 2020-01-26     0
 6 <NA>             Afghanistan  33.9  67.7 2020-01-27     0
 7 <NA>             Afghanistan  33.9  67.7 2020-01-28     0
 8 <NA>             Afghanistan  33.9  67.7 2020-01-29     0
 9 <NA>             Afghanistan  33.9  67.7 2020-01-30     0
10 <NA>             Afghanistan  33.9  67.7 2020-01-31     0
# ℹ 330,317 more rows
Another useful modification is to make sure only one row exists for each country. If we look at the data for some countries (e.g. China and UK) there are different entries for provinces and oversees territories. So we can change the Cases to be the sum of all cases for that country on a particular day. We can do this using the group_by and summarise functions from above.

covid <- read_csv("raw_data/time_series_covid19_confirmed_global.csv", show_col_types = FALSE) %>% 
  rename(country = `Country/Region`) %>% 
  pivot_longer(5:last_col(),names_to="Date", values_to="Cases") %>% 
  mutate(Date=as.Date(Date,"%m/%d/%y")) %>% 
  group_by(country,Date) %>% 
  summarise(Cases = sum(Cases))

`summarise()` has grouped output by 'country'. You can override using the
`.groups` argument.

covid

# A tibble: 229,743 × 3
# Groups:   country [201]
   country     Date       Cases
   <chr>       <date>     <dbl>
 1 Afghanistan 2020-01-22     0
 2 Afghanistan 2020-01-23     0
 3 Afghanistan 2020-01-24     0
 4 Afghanistan 2020-01-25     0
 5 Afghanistan 2020-01-26     0
 6 Afghanistan 2020-01-27     0
 7 Afghanistan 2020-01-28     0
 8 Afghanistan 2020-01-29     0
 9 Afghanistan 2020-01-30     0
10 Afghanistan 2020-01-31     0
# ℹ 229,733 more rows

covid

# A tibble: 229,743 × 3
# Groups:   country [201]
   country     Date       Cases
   <chr>       <date>     <dbl>
 1 Afghanistan 2020-01-22     0
 2 Afghanistan 2020-01-23     0
 3 Afghanistan 2020-01-24     0
 4 Afghanistan 2020-01-25     0
 5 Afghanistan 2020-01-26     0
 6 Afghanistan 2020-01-27     0
 7 Afghanistan 2020-01-28     0
 8 Afghanistan 2020-01-29     0
 9 Afghanistan 2020-01-30     0
10 Afghanistan 2020-01-31     0
# ℹ 229,733 more rows

Since we previously renamed the country column in covid and both data frames now have a column called country we can use a left_join.

left_join(gapminder, covid)

Joining with `by = join_by(country)`

Warning in left_join(gapminder, covid): Detected an unexpected many-to-many relationship between `x` and `y`.
ℹ Row 1 of `x` matches multiple rows in `y`.
ℹ Row 1 of `y` matches multiple rows in `x`.
ℹ If a many-to-many relationship is expected, set `relationship =
  "many-to-many"` to silence this warning.

# A tibble: 1,755,816 × 8
   country     continent  year lifeExp     pop gdpPercap Date       Cases
   <chr>       <chr>     <dbl>   <dbl>   <dbl>     <dbl> <date>     <dbl>
 1 Afghanistan Asia       1952    28.8 8425333      779. 2020-01-22     0
 2 Afghanistan Asia       1952    28.8 8425333      779. 2020-01-23     0
 3 Afghanistan Asia       1952    28.8 8425333      779. 2020-01-24     0
 4 Afghanistan Asia       1952    28.8 8425333      779. 2020-01-25     0
 5 Afghanistan Asia       1952    28.8 8425333      779. 2020-01-26     0
 6 Afghanistan Asia       1952    28.8 8425333      779. 2020-01-27     0
 7 Afghanistan Asia       1952    28.8 8425333      779. 2020-01-28     0
 8 Afghanistan Asia       1952    28.8 8425333      779. 2020-01-29     0
 9 Afghanistan Asia       1952    28.8 8425333      779. 2020-01-30     0
10 Afghanistan Asia       1952    28.8 8425333      779. 2020-01-31     0
# ℹ 1,755,806 more rows

If we hadn’t used rename previously, the joining code would look like this

left_join(gapminder, covid, by = c("county" = "Country/Region"))

Furthermore, we might also want to just use the 2007 rows from gapminder.

filter(gapminder, year == 2007) %>% 
  left_join(covid)

Joining with `by = join_by(country)`

# A tibble: 146,318 × 8
   country     continent  year lifeExp      pop gdpPercap Date       Cases
   <chr>       <chr>     <dbl>   <dbl>    <dbl>     <dbl> <date>     <dbl>
 1 Afghanistan Asia       2007    43.8 31889923      975. 2020-01-22     0
 2 Afghanistan Asia       2007    43.8 31889923      975. 2020-01-23     0
 3 Afghanistan Asia       2007    43.8 31889923      975. 2020-01-24     0
 4 Afghanistan Asia       2007    43.8 31889923      975. 2020-01-25     0
 5 Afghanistan Asia       2007    43.8 31889923      975. 2020-01-26     0
 6 Afghanistan Asia       2007    43.8 31889923      975. 2020-01-27     0
 7 Afghanistan Asia       2007    43.8 31889923      975. 2020-01-28     0
 8 Afghanistan Asia       2007    43.8 31889923      975. 2020-01-29     0
 9 Afghanistan Asia       2007    43.8 31889923      975. 2020-01-30     0
10 Afghanistan Asia       2007    43.8 31889923      975. 2020-01-31     0
# ℹ 146,308 more rows
…
To explore the european data on a particular date, we first filter gapminder appropriately

filter(gapminder, year == 2007,continent=="Europe") %>%
  left_join(covid) %>% 
  filter(Date == "2023-01-13") %>% 
  mutate(Cases = round(Cases / (pop / 1e5)))

Joining with `by = join_by(country)`

# A tibble: 28 × 8
   country             continent  year lifeExp    pop gdpPercap Date       Cases
   <chr>               <chr>     <dbl>   <dbl>  <dbl>     <dbl> <date>     <dbl>
 1 Albania             Europe     2007    76.4 3.60e6     5937. 2023-01-13  9277
 2 Austria             Europe     2007    79.8 8.20e6    36126. 2023-01-13 69987
 3 Belgium             Europe     2007    79.4 1.04e7    33693. 2023-01-13 45093
 4 Bosnia and Herzego… Europe     2007    74.9 4.55e6     7446. 2023-01-13  8813
 5 Bulgaria            Europe     2007    73.0 7.32e6    10681. 2023-01-13 17672
 6 Croatia             Europe     2007    75.7 4.49e6    14619. 2023-01-13 28181
 7 Denmark             Europe     2007    78.3 5.47e6    35278. 2023-01-13 62970
 8 Finland             Europe     2007    79.3 5.24e6    33207. 2023-01-13 27654
 9 France              Europe     2007    80.7 6.11e7    30470. 2023-01-13 64906
10 Germany             Europe     2007    79.4 8.24e7    32170. 2023-01-13 45637
# ℹ 18 more rows
…
