Introduction to R - Part 1 – Dr. Mark Dunning - Bioinformatician / Data Scientist
…
If you get really stuck importing data, there is a File -> Import Dataset option that should guide you through the process. It will also show the corresponding R code that you can use in future.

The data frame object in R allows us to work with “tabular” data, like we might be used to dealing with in Excel, where our data can be thought of having rows and columns. The values in each column have to all be of the same type (i.e. all numbers or all text).

In Rstudio, you can view the contents of the data frame we have just created using function View(). This is useful for interactive exploration of the data, but not so useful for automation, scripting and analyses.

## Make sure that you use a capital letter V

View(gapminder)

# A tibble: 1,704 × 6
   country     continent  year lifeExp      pop gdpPercap
   <chr>       <chr>     <dbl>   <dbl>    <dbl>     <dbl>
 1 Afghanistan Asia       1952    28.8  8425333      779.
 2 Afghanistan Asia       1957    30.3  9240934      821.
 3 Afghanistan Asia       1962    32.0 10267083      853.
 4 Afghanistan Asia       1967    34.0 11537966      836.
 5 Afghanistan Asia       1972    36.1 13079460      740.
 6 Afghanistan Asia       1977    38.4 14880372      786.
 7 Afghanistan Asia       1982    39.9 12881816      978.
 8 Afghanistan Asia       1987    40.8 13867957      852.
 9 Afghanistan Asia       1992    41.7 16317921      649.
10 Afghanistan Asia       1997    41.8 22227415      635.
# ℹ 1,694 more rows
…
Warning: 324 parsing failures.
row col  expected    actual                     file
145  -- 1 columns 3 columns 'raw_data/gapminder.csv'
146  -- 1 columns 3 columns 'raw_data/gapminder.csv'
147  -- 1 columns 3 columns 'raw_data/gapminder.csv'
148  -- 1 columns 3 columns 'raw_data/gapminder.csv'
149  -- 1 columns 3 columns 'raw_data/gapminder.csv'
... ... ......... ......... ........................
See problems(...) for more details.

View(test)

# A tibble: 1,704 × 1
   `"country","continent","year","lifeExp","pop","gdpPercap"` 
   <chr>                                                      
 1 "\"Afghanistan\",\"Asia\",1952,28.801,8425333,779.4453145" 
 2 "\"Afghanistan\",\"Asia\",1957,30.332,9240934,820.8530296" 
 3 "\"Afghanistan\",\"Asia\",1962,31.997,10267083,853.10071"  
 4 "\"Afghanistan\",\"Asia\",1967,34.02,11537966,836.1971382" 
 5 "\"Afghanistan\",\"Asia\",1972,36.088,13079460,739.9811058"
 6 "\"Afghanistan\",\"Asia\",1977,38.438,14880372,786.11336"  
 7 "\"Afghanistan\",\"Asia\",1982,39.854,12881816,978.0114388"
 8 "\"Afghanistan\",\"Asia\",1987,40.822,13867957,852.3959448"
 9 "\"Afghanistan\",\"Asia\",1992,41.674,16317921,649.3413952"
10 "\"Afghanistan\",\"Asia\",1997,41.763,22227415,635.341351" 
# ℹ 1,694 more rows
…
